[gd_scene load_steps=3 format=2]

[ext_resource path="res://assets/scripts/snipe_bullet.gd" type="Script" id=1]

[sub_resource type="Gradient" id=1]

offsets = PoolRealArray( 0, 1 )
colors = PoolColorArray( 1, 1, 1, 1, 0.950562, 1, 0.367188, 1 )

[node name="snipe_bullet" type="Line2D"]
points = PoolVector2Array( 0, 0, 0, 0 )
width = 2.0
default_color = Color( 0.4, 0.5, 1, 1 )
gradient = SubResource( 1 )
texture_mode = 1313163520
sharp_limit = 2.0
round_precision = 8
script = ExtResource( 1 )

