[gd_scene load_steps=5 format=2]

[ext_resource path="res://assets/scripts/updater.gd" type="Script" id=1]
[ext_resource path="res://assets/fonts/basis33.regular.ttf" type="DynamicFontData" id=2]

[sub_resource type="StyleBoxFlat" id=1]
bg_color = Color( 0.0980392, 0.0980392, 0.0980392, 1 )

[sub_resource type="DynamicFont" id=2]
font_data = ExtResource( 2 )

[node name="updater" type="Panel"]
anchor_right = 1.0
anchor_bottom = 1.0
custom_styles/panel = SubResource( 1 )
script = ExtResource( 1 )

[node name="log" type="Label" parent="."]
anchor_right = 1.0
anchor_bottom = 1.0
margin_left = 8.0
margin_top = 8.0
custom_fonts/font = SubResource( 2 )
text = "welcome to bvb!

checking for updates..."

[node name="http" type="HTTPRequest" parent="."]

